INDEX VERSION 1.127+/home/nithinay/Nithin/Nithins_WS/ToDo/.metadata/.plugins/org.eclipse.jdt.core
1415693123.index
594612822.index
3259151410.index
3713870674.index
575242525.index
666576866.index
3447204158.index
